%!PS-Adobe-3.0 EPSF-3.0
%%Creator: (MATLAB, The Mathworks, Inc. Version 8.5.0.197613 \(R2015a\). Operating System: Mac OS X)
%%Title: /Users/Shri/tspaper/bouncing_ball_event_fig.eps
%%CreationDate: 2017-12-12T14:54:11
%%Pages: (atend)
%%BoundingBox: 0 0 1086 612
%%LanguageLevel: 2
%%EndComments
%%BeginProlog
%%BeginResource: procset (Apache XML Graphics Std ProcSet) 1.2 0
%%Version: 1.2 0
%%Copyright: (Copyright 2001-2003,2010 The Apache Software Foundation. License terms: http://www.apache.org/licenses/LICENSE-2.0)
/bd{bind def}bind def
/ld{load def}bd
/GR/grestore ld
/M/moveto ld
/LJ/setlinejoin ld
/C/curveto ld
/f/fill ld
/LW/setlinewidth ld
/GC/setgray ld
/t/show ld
/N/newpath ld
/CT/concat ld
/cp/closepath ld
/S/stroke ld
/L/lineto ld
/CC/setcmykcolor ld
/A/ashow ld
/GS/gsave ld
/RC/setrgbcolor ld
/RM/rmoveto ld
/ML/setmiterlimit ld
/re {4 2 roll M
1 index 0 rlineto
0 exch rlineto
neg 0 rlineto
cp } bd
/_ctm matrix def
/_tm matrix def
/BT { _ctm currentmatrix pop matrix _tm copy pop 0 0 moveto } bd
/ET { _ctm setmatrix } bd
/iTm { _ctm setmatrix _tm concat } bd
/Tm { _tm astore pop iTm 0 0 moveto } bd
/ux 0.0 def
/uy 0.0 def
/F {
  /Tp exch def
  /Tf exch def
  Tf findfont Tp scalefont setfont
  /cf Tf def  /cs Tp def
} bd
/ULS {currentpoint /uy exch def /ux exch def} bd
/ULE {
  /Tcx currentpoint pop def
  gsave
  newpath
  cf findfont cs scalefont dup
  /FontMatrix get 0 get /Ts exch def /FontInfo get dup
  /UnderlinePosition get Ts mul /To exch def
  /UnderlineThickness get Ts mul /Tt exch def
  ux uy To add moveto  Tcx uy To add lineto
  Tt setlinewidth stroke
  grestore
} bd
/OLE {
  /Tcx currentpoint pop def
  gsave
  newpath
  cf findfont cs scalefont dup
  /FontMatrix get 0 get /Ts exch def /FontInfo get dup
  /UnderlinePosition get Ts mul /To exch def
  /UnderlineThickness get Ts mul /Tt exch def
  ux uy To add cs add moveto Tcx uy To add cs add lineto
  Tt setlinewidth stroke
  grestore
} bd
/SOE {
  /Tcx currentpoint pop def
  gsave
  newpath
  cf findfont cs scalefont dup
  /FontMatrix get 0 get /Ts exch def /FontInfo get dup
  /UnderlinePosition get Ts mul /To exch def
  /UnderlineThickness get Ts mul /Tt exch def
  ux uy To add cs 10 mul 26 idiv add moveto Tcx uy To add cs 10 mul 26 idiv add lineto
  Tt setlinewidth stroke
  grestore
} bd
/QT {
/Y22 exch store
/X22 exch store
/Y21 exch store
/X21 exch store
currentpoint
/Y21 load 2 mul add 3 div exch
/X21 load 2 mul add 3 div exch
/X21 load 2 mul /X22 load add 3 div
/Y21 load 2 mul /Y22 load add 3 div
/X22 load /Y22 load curveto
} bd
/SSPD {
dup length /d exch dict def
{
/v exch def
/k exch def
currentpagedevice k known {
/cpdv currentpagedevice k get def
v cpdv ne {
/upd false def
/nullv v type /nulltype eq def
/nullcpdv cpdv type /nulltype eq def
nullv nullcpdv or
{
/upd true def
} {
/sametype v type cpdv type eq def
sametype {
v type /arraytype eq {
/vlen v length def
/cpdvlen cpdv length def
vlen cpdvlen eq {
0 1 vlen 1 sub {
/i exch def
/obj v i get def
/cpdobj cpdv i get def
obj cpdobj ne {
/upd true def
exit
} if
} for
} {
/upd true def
} ifelse
} {
v type /dicttype eq {
v {
/dv exch def
/dk exch def
/cpddv cpdv dk get def
dv cpddv ne {
/upd true def
exit
} if
} forall
} {
/upd true def
} ifelse
} ifelse
} if
} ifelse
upd true eq {
d k v put
} if
} if
} if
} forall
d length 0 gt {
d setpagedevice
} if
} bd
%%EndResource
%%BeginResource: procset (Apache XML Graphics EPS ProcSet) 1.0 0
%%Version: 1.0 0
%%Copyright: (Copyright 2002-2003 The Apache Software Foundation. License terms: http://www.apache.org/licenses/LICENSE-2.0)
/BeginEPSF { %def
/b4_Inc_state save def         % Save state for cleanup
/dict_count countdictstack def % Count objects on dict stack
/op_count count 1 sub def      % Count objects on operand stack
userdict begin                 % Push userdict on dict stack
/showpage { } def              % Redefine showpage, { } = null proc
0 setgray 0 setlinecap         % Prepare graphics state
1 setlinewidth 0 setlinejoin
10 setmiterlimit [ ] 0 setdash newpath
/languagelevel where           % If level not equal to 1 then
{pop languagelevel             % set strokeadjust and
1 ne                           % overprint to their defaults.
{false setstrokeadjust false setoverprint
} if
} if
} bd
/EndEPSF { %def
count op_count sub {pop} repeat            % Clean up stacks
countdictstack dict_count sub {end} repeat
b4_Inc_state restore
} bd
%%EndResource
%FOPBeginFontDict
%%IncludeResource: font Courier-Bold
%%IncludeResource: font Helvetica
%%IncludeResource: font Courier-BoldOblique
%%IncludeResource: font Courier-Oblique
%%IncludeResource: font Times-Roman
%%IncludeResource: font Helvetica-BoldOblique
%%IncludeResource: font Helvetica-Bold
%%IncludeResource: font Helvetica-Oblique
%%IncludeResource: font Times-BoldItalic
%%IncludeResource: font Courier
%%IncludeResource: font Times-Italic
%%IncludeResource: font Times-Bold
%%IncludeResource: font Symbol
%%IncludeResource: font ZapfDingbats
%FOPEndFontDict
%%BeginResource: encoding WinAnsiEncoding
/WinAnsiEncoding [
/.notdef /.notdef /.notdef /.notdef /.notdef
/.notdef /.notdef /.notdef /.notdef /.notdef
/.notdef /.notdef /.notdef /.notdef /.notdef
/.notdef /.notdef /.notdef /.notdef /.notdef
/.notdef /.notdef /.notdef /.notdef /.notdef
/.notdef /.notdef /.notdef /.notdef /.notdef
/.notdef /.notdef /space /exclam /quotedbl
/numbersign /dollar /percent /ampersand /quotesingle
/parenleft /parenright /asterisk /plus /comma
/hyphen /period /slash /zero /one
/two /three /four /five /six
/seven /eight /nine /colon /semicolon
/less /equal /greater /question /at
/A /B /C /D /E
/F /G /H /I /J
/K /L /M /N /O
/P /Q /R /S /T
/U /V /W /X /Y
/Z /bracketleft /backslash /bracketright /asciicircum
/underscore /quoteleft /a /b /c
/d /e /f /g /h
/i /j /k /l /m
/n /o /p /q /r
/s /t /u /v /w
/x /y /z /braceleft /bar
/braceright /asciitilde /bullet /Euro /bullet
/quotesinglbase /florin /quotedblbase /ellipsis /dagger
/daggerdbl /circumflex /perthousand /Scaron /guilsinglleft
/OE /bullet /Zcaron /bullet /bullet
/quoteleft /quoteright /quotedblleft /quotedblright /bullet
/endash /emdash /asciitilde /trademark /scaron
/guilsinglright /oe /bullet /zcaron /Ydieresis
/space /exclamdown /cent /sterling /currency
/yen /brokenbar /section /dieresis /copyright
/ordfeminine /guillemotleft /logicalnot /sfthyphen /registered
/macron /degree /plusminus /twosuperior /threesuperior
/acute /mu /paragraph /middot /cedilla
/onesuperior /ordmasculine /guillemotright /onequarter /onehalf
/threequarters /questiondown /Agrave /Aacute /Acircumflex
/Atilde /Adieresis /Aring /AE /Ccedilla
/Egrave /Eacute /Ecircumflex /Edieresis /Igrave
/Iacute /Icircumflex /Idieresis /Eth /Ntilde
/Ograve /Oacute /Ocircumflex /Otilde /Odieresis
/multiply /Oslash /Ugrave /Uacute /Ucircumflex
/Udieresis /Yacute /Thorn /germandbls /agrave
/aacute /acircumflex /atilde /adieresis /aring
/ae /ccedilla /egrave /eacute /ecircumflex
/edieresis /igrave /iacute /icircumflex /idieresis
/eth /ntilde /ograve /oacute /ocircumflex
/otilde /odieresis /divide /oslash /ugrave
/uacute /ucircumflex /udieresis /yacute /thorn
/ydieresis
] def
%%EndResource
%FOPBeginFontReencode
/Courier-Bold findfont
dup length dict begin
  {1 index /FID ne {def} {pop pop} ifelse} forall
  /Encoding WinAnsiEncoding def
  currentdict
end
/Courier-Bold exch definefont pop
/Helvetica findfont
dup length dict begin
  {1 index /FID ne {def} {pop pop} ifelse} forall
  /Encoding WinAnsiEncoding def
  currentdict
end
/Helvetica exch definefont pop
/Courier-BoldOblique findfont
dup length dict begin
  {1 index /FID ne {def} {pop pop} ifelse} forall
  /Encoding WinAnsiEncoding def
  currentdict
end
/Courier-BoldOblique exch definefont pop
/Courier-Oblique findfont
dup length dict begin
  {1 index /FID ne {def} {pop pop} ifelse} forall
  /Encoding WinAnsiEncoding def
  currentdict
end
/Courier-Oblique exch definefont pop
/Times-Roman findfont
dup length dict begin
  {1 index /FID ne {def} {pop pop} ifelse} forall
  /Encoding WinAnsiEncoding def
  currentdict
end
/Times-Roman exch definefont pop
/Helvetica-BoldOblique findfont
dup length dict begin
  {1 index /FID ne {def} {pop pop} ifelse} forall
  /Encoding WinAnsiEncoding def
  currentdict
end
/Helvetica-BoldOblique exch definefont pop
/Helvetica-Bold findfont
dup length dict begin
  {1 index /FID ne {def} {pop pop} ifelse} forall
  /Encoding WinAnsiEncoding def
  currentdict
end
/Helvetica-Bold exch definefont pop
/Helvetica-Oblique findfont
dup length dict begin
  {1 index /FID ne {def} {pop pop} ifelse} forall
  /Encoding WinAnsiEncoding def
  currentdict
end
/Helvetica-Oblique exch definefont pop
/Times-BoldItalic findfont
dup length dict begin
  {1 index /FID ne {def} {pop pop} ifelse} forall
  /Encoding WinAnsiEncoding def
  currentdict
end
/Times-BoldItalic exch definefont pop
/Courier findfont
dup length dict begin
  {1 index /FID ne {def} {pop pop} ifelse} forall
  /Encoding WinAnsiEncoding def
  currentdict
end
/Courier exch definefont pop
/Times-Italic findfont
dup length dict begin
  {1 index /FID ne {def} {pop pop} ifelse} forall
  /Encoding WinAnsiEncoding def
  currentdict
end
/Times-Italic exch definefont pop
/Times-Bold findfont
dup length dict begin
  {1 index /FID ne {def} {pop pop} ifelse} forall
  /Encoding WinAnsiEncoding def
  currentdict
end
/Times-Bold exch definefont pop
%FOPEndFontReencode
%%EndProlog
%%Page: 1 1
%%PageBoundingBox: 0 0 1086 612
%%BeginPageSetup
[1 0 0 -1 0 612] CT
%%EndPageSetup
GS
1 GC
N
0 0 1086 612 re
f
GR
GS
1 GC
N
0 0 1086 612 re
f
GR
GS
1 GC
N
141 545 M
983 545 L
983 46 L
141 46 L
cp
f
GR
GS
[1 0 0 1 562.00043 568.20001] CT
0.149 GC
/Helvetica-Bold 18 F
GS
[1 0 0 1 0 0] CT
-42.5 14 moveto 
1 -1 scale
(Time\(sec\)) t 
GR
GR
GS
0.149 GC
2 setlinecap
10.0 ML
N
141 545 M
983 545 L
S
GR
GS
0.149 GC
2 setlinecap
10.0 ML
N
141 46 M
983 46 L
S
GR
GS
0.149 GC
2 setlinecap
10.0 ML
N
141 545 M
141 536.58 L
S
GR
GS
0.149 GC
2 setlinecap
10.0 ML
N
281.333 545 M
281.333 536.58 L
S
GR
GS
0.149 GC
2 setlinecap
10.0 ML
N
421.667 545 M
421.667 536.58 L
S
GR
GS
0.149 GC
2 setlinecap
10.0 ML
N
562 545 M
562 536.58 L
S
GR
GS
0.149 GC
2 setlinecap
10.0 ML
N
702.333 545 M
702.333 536.58 L
S
GR
GS
0.149 GC
2 setlinecap
10.0 ML
N
842.667 545 M
842.667 536.58 L
S
GR
GS
0.149 GC
2 setlinecap
10.0 ML
N
983 545 M
983 536.58 L
S
GR
GS
0.149 GC
2 setlinecap
10.0 ML
N
141 46 M
141 54.42 L
S
GR
GS
0.149 GC
2 setlinecap
10.0 ML
N
281.333 46 M
281.333 54.42 L
S
GR
GS
0.149 GC
2 setlinecap
10.0 ML
N
421.667 46 M
421.667 54.42 L
S
GR
GS
0.149 GC
2 setlinecap
10.0 ML
N
562 46 M
562 54.42 L
S
GR
GS
0.149 GC
2 setlinecap
10.0 ML
N
702.333 46 M
702.333 54.42 L
S
GR
GS
0.149 GC
2 setlinecap
10.0 ML
N
842.667 46 M
842.667 54.42 L
S
GR
GS
0.149 GC
2 setlinecap
10.0 ML
N
983 46 M
983 54.42 L
S
GR
GS
[1 0 0 1 141 550.20001] CT
0.149 GC
/Helvetica-Bold 16 F
GS
[1 0 0 1 0 0] CT
-4.5 13 moveto 
1 -1 scale
(0) t 
GR
GR
GS
[1 0 0 1 281.33334 550.20001] CT
0.149 GC
/Helvetica-Bold 16 F
GS
[1 0 0 1 0 0] CT
-4.5 13 moveto 
1 -1 scale
(5) t 
GR
GR
GS
[1 0 0 1 421.66666 550.20001] CT
0.149 GC
/Helvetica-Bold 16 F
GS
[1 0 0 1 0 0] CT
-9 13 moveto 
1 -1 scale
(10) t 
GR
GR
GS
[1 0 0 1 562 550.20001] CT
0.149 GC
/Helvetica-Bold 16 F
GS
[1 0 0 1 0 0] CT
-9 13 moveto 
1 -1 scale
(15) t 
GR
GR
GS
[1 0 0 1 702.33331 550.20001] CT
0.149 GC
/Helvetica-Bold 16 F
GS
[1 0 0 1 0 0] CT
-9 13 moveto 
1 -1 scale
(20) t 
GR
GR
GS
[1 0 0 1 842.66669 550.20001] CT
0.149 GC
/Helvetica-Bold 16 F
GS
[1 0 0 1 0 0] CT
-9 13 moveto 
1 -1 scale
(25) t 
GR
GR
GS
[1 0 0 1 983 550.20001] CT
0.149 GC
/Helvetica-Bold 16 F
GS
[1 0 0 1 0 0] CT
-9 13 moveto 
1 -1 scale
(30) t 
GR
GR
GS
[0 -1 1 0 114.8 295.49979] CT
0.149 GC
/Helvetica-Bold 18 F
GS
[1 0 0 1 0 0] CT
-57 -5 moveto 
1 -1 scale
(Elevation \(m\)) t 
GR
GR
GS
0.149 GC
2 setlinecap
10.0 ML
N
141 545 M
141 46 L
S
GR
GS
0.149 GC
2 setlinecap
10.0 ML
N
983 545 M
983 46 L
S
GR
GS
0.149 GC
2 setlinecap
10.0 ML
N
141 545 M
149.42 545 L
S
GR
GS
0.149 GC
2 setlinecap
10.0 ML
N
141 445.2 M
149.42 445.2 L
S
GR
GS
0.149 GC
2 setlinecap
10.0 ML
N
141 345.4 M
149.42 345.4 L
S
GR
GS
0.149 GC
2 setlinecap
10.0 ML
N
141 245.6 M
149.42 245.6 L
S
GR
GS
0.149 GC
2 setlinecap
10.0 ML
N
141 145.8 M
149.42 145.8 L
S
GR
GS
0.149 GC
2 setlinecap
10.0 ML
N
141 46 M
149.42 46 L
S
GR
GS
0.149 GC
2 setlinecap
10.0 ML
N
983 545 M
974.58 545 L
S
GR
GS
0.149 GC
2 setlinecap
10.0 ML
N
983 445.2 M
974.58 445.2 L
S
GR
GS
0.149 GC
2 setlinecap
10.0 ML
N
983 345.4 M
974.58 345.4 L
S
GR
GS
0.149 GC
2 setlinecap
10.0 ML
N
983 245.6 M
974.58 245.6 L
S
GR
GS
0.149 GC
2 setlinecap
10.0 ML
N
983 145.8 M
974.58 145.8 L
S
GR
GS
0.149 GC
2 setlinecap
10.0 ML
N
983 46 M
974.58 46 L
S
GR
GS
[1 0 0 1 135.8 545] CT
0.149 GC
/Helvetica-Bold 16 F
GS
[1 0 0 1 0 0] CT
-9 4.5 moveto 
1 -1 scale
(0) t 
GR
GR
GS
[1 0 0 1 135.8 445.20001] CT
0.149 GC
/Helvetica-Bold 16 F
GS
[1 0 0 1 0 0] CT
-9 4.5 moveto 
1 -1 scale
(5) t 
GR
GR
GS
[1 0 0 1 135.8 345.39999] CT
0.149 GC
/Helvetica-Bold 16 F
GS
[1 0 0 1 0 0] CT
-18 4.5 moveto 
1 -1 scale
(10) t 
GR
GR
GS
[1 0 0 1 135.8 245.60001] CT
0.149 GC
/Helvetica-Bold 16 F
GS
[1 0 0 1 0 0] CT
-18 4.5 moveto 
1 -1 scale
(15) t 
GR
GR
GS
[1 0 0 1 135.8 145.8] CT
0.149 GC
/Helvetica-Bold 16 F
GS
[1 0 0 1 0 0] CT
-18 4.5 moveto 
1 -1 scale
(20) t 
GR
GR
GS
[1 0 0 1 135.8 46] CT
0.149 GC
/Helvetica-Bold 16 F
GS
[1 0 0 1 0 0] CT
-18 4.5 moveto 
1 -1 scale
(25) t 
GR
GR
GS
0 0.447 0.741 RC
2 LJ
2 LW
N
143.807 506.058 M
146.613 469.072 L
149.42 434.042 L
152.227 400.969 L
155.033 369.851 L
157.84 340.689 L
160.647 313.484 L
163.453 288.235 L
166.26 264.941 L
169.067 243.604 L
171.873 224.223 L
174.68 206.798 L
177.487 191.329 L
180.293 177.816 L
183.1 166.259 L
185.907 156.658 L
188.713 149.014 L
191.52 143.325 L
194.327 139.592 L
197.133 137.816 L
199.94 137.996 L
202.747 140.131 L
205.553 144.223 L
208.36 150.271 L
211.167 158.275 L
213.973 168.235 L
216.78 180.151 L
219.587 194.023 L
222.393 209.852 L
225.2 227.636 L
228.007 247.376 L
230.813 269.073 L
233.62 292.726 L
236.427 318.334 L
239.233 345.899 L
242.04 375.42 L
244.847 406.897 L
247.653 440.33 L
250.46 475.719 L
253.267 513.064 L
255.547 544.851 L
255.558 544.999 L
255.558 545 L
256.073 538.434 L
258.88 503.843 L
261.687 471.209 L
264.493 440.53 L
267.3 411.808 L
270.107 385.041 L
272.913 360.231 L
S
GR
GS
0 0.447 0.741 RC
2 LJ
2 LW
N
272.913 360.231 M
275.72 337.377 L
278.527 316.479 L
281.333 297.537 L
284.14 280.551 L
286.947 265.521 L
289.753 252.447 L
292.56 241.329 L
295.367 232.168 L
298.173 224.962 L
300.98 219.713 L
303.787 216.419 L
306.593 215.082 L
309.4 215.701 L
312.207 218.276 L
315.013 222.807 L
317.82 229.293 L
320.627 237.737 L
323.433 248.136 L
326.24 260.491 L
329.047 274.802 L
331.853 291.07 L
334.66 309.293 L
337.467 329.473 L
340.273 351.608 L
343.08 375.7 L
345.887 401.748 L
348.693 429.752 L
351.5 459.712 L
354.307 491.628 L
357.113 525.5 L
358.641 544.757 L
358.66 544.997 L
358.66 545 L
359.92 530.679 L
362.727 500.2 L
365.533 471.678 L
368.34 445.111 L
371.147 420.5 L
373.953 397.846 L
376.76 377.147 L
379.567 358.405 L
382.373 341.618 L
385.18 326.788 L
387.987 313.914 L
390.793 302.996 L
393.6 294.034 L
396.407 287.028 L
399.213 281.978 L
402.02 278.884 L
S
GR
GS
0 0.447 0.741 RC
2 LJ
2 LW
N
402.02 278.884 M
404.827 277.746 L
407.633 278.565 L
410.44 281.339 L
413.247 286.07 L
416.053 292.756 L
418.86 301.399 L
421.667 311.998 L
424.473 324.552 L
427.28 339.063 L
430.087 355.53 L
432.893 373.953 L
435.7 394.333 L
438.507 416.668 L
441.313 440.959 L
444.12 467.207 L
446.927 495.41 L
449.733 525.57 L
451.431 544.766 L
451.451 544.997 L
451.452 545 L
452.54 533.863 L
455.347 506.498 L
458.153 481.089 L
460.96 457.635 L
463.767 436.139 L
466.573 416.598 L
469.38 399.013 L
472.187 383.384 L
474.993 369.712 L
477.8 357.995 L
480.607 348.235 L
483.413 340.43 L
486.22 334.582 L
489.027 330.69 L
491.833 328.754 L
494.64 328.774 L
497.447 330.75 L
500.253 334.682 L
503.06 340.57 L
505.867 348.414 L
508.673 358.215 L
511.48 369.971 L
514.287 383.684 L
517.093 399.352 L
519.9 416.977 L
522.707 436.558 L
525.513 458.095 L
528.32 481.587 L
531.127 507.036 L
S
GR
GS
0 0.447 0.741 RC
2 LJ
2 LW
N
531.127 507.036 M
533.933 534.442 L
534.943 544.775 L
534.964 544.995 L
534.964 545 L
536.74 528.821 L
539.547 504.845 L
542.353 482.826 L
545.16 462.762 L
547.967 444.654 L
550.773 428.502 L
553.58 414.307 L
556.387 402.067 L
559.193 391.784 L
562 383.457 L
564.807 377.085 L
567.613 372.67 L
570.42 370.211 L
573.227 369.708 L
576.033 371.161 L
578.84 374.57 L
581.647 379.936 L
584.453 387.257 L
587.26 396.534 L
590.067 407.768 L
592.873 420.957 L
595.68 436.103 L
598.487 453.205 L
601.293 472.263 L
604.1 493.277 L
606.907 516.247 L
609.713 541.173 L
610.113 544.881 L
610.125 544.996 L
610.126 545 L
612.52 525.603 L
615.327 504.677 L
618.133 485.708 L
620.94 468.694 L
623.747 453.637 L
626.553 440.536 L
629.36 429.39 L
632.167 420.201 L
634.973 412.968 L
637.78 407.691 L
640.587 404.37 L
643.393 403.005 L
646.2 403.596 L
649.007 406.144 L
651.813 410.647 L
S
GR
GS
0 0.447 0.741 RC
2 LJ
2 LW
N
651.813 410.647 M
654.62 417.107 L
657.427 425.522 L
660.233 435.894 L
663.04 448.221 L
665.847 462.505 L
668.653 478.745 L
671.46 496.941 L
674.267 517.093 L
677.073 539.201 L
677.75 544.821 L
677.77 544.995 L
677.771 545 L
679.88 529.611 L
682.687 510.843 L
685.493 494.032 L
688.3 479.177 L
691.107 466.278 L
693.913 455.335 L
696.72 446.348 L
699.527 439.318 L
702.333 434.243 L
705.14 431.124 L
707.947 429.962 L
710.753 430.755 L
713.56 433.505 L
716.367 438.211 L
719.173 444.873 L
721.98 453.491 L
724.787 464.065 L
727.593 476.595 L
730.4 491.081 L
733.207 507.523 L
736.013 525.921 L
738.644 544.943 L
738.652 545 L
738.652 545 L
738.82 543.859 L
741.627 525.86 L
744.433 509.818 L
747.24 495.732 L
750.047 483.602 L
752.853 473.428 L
755.66 465.21 L
758.467 458.948 L
761.273 454.643 L
764.08 452.293 L
766.887 451.899 L
769.693 453.462 L
772.5 456.981 L
S
GR
GS
0 0.447 0.741 RC
2 LJ
2 LW
N
772.5 456.981 M
775.307 462.455 L
778.113 469.886 L
780.92 479.273 L
783.727 490.616 L
786.533 503.915 L
789.34 519.17 L
792.147 536.381 L
793.409 544.758 L
793.443 544.994 L
793.444 545 L
794.953 536.044 L
797.76 520.889 L
800.567 507.691 L
803.373 496.448 L
806.18 487.162 L
808.987 479.832 L
811.793 474.458 L
814.6 471.04 L
817.407 469.578 L
820.213 470.072 L
823.02 472.522 L
825.827 476.928 L
828.633 483.29 L
831.44 491.609 L
834.247 501.883 L
837.053 514.114 L
839.86 528.301 L
842.667 544.443 L
842.753 544.971 L
842.758 544.998 L
842.758 545 L
845.473 530.952 L
848.28 518.357 L
851.087 507.717 L
853.893 499.034 L
856.7 492.307 L
859.507 487.537 L
862.313 484.722 L
865.12 483.863 L
867.927 484.96 L
870.733 488.014 L
873.54 493.023 L
876.347 499.989 L
879.153 508.911 L
881.96 519.789 L
884.767 532.622 L
887.116 544.867 L
887.14 544.999 L
887.14 545 L
S
GR
GS
0 0.447 0.741 RC
2 LJ
2 LW
N
887.14 545 M
887.573 542.873 L
S
GR
GS
0 0.447 0.741 RC
2 LJ
2 LW
N
141 509 M
146 504 L
S
GR
GS
0 0.447 0.741 RC
2 LJ
2 LW
N
141 504 M
146 509 L
S
GR
GS
0 0.447 0.741 RC
2 LJ
2 LW
N
144 472 M
149 467 L
S
GR
GS
0 0.447 0.741 RC
2 LJ
2 LW
N
144 467 M
149 472 L
S
GR
GS
0 0.447 0.741 RC
2 LJ
2 LW
N
147 437 M
152 432 L
S
GR
GS
0 0.447 0.741 RC
2 LJ
2 LW
N
147 432 M
152 437 L
S
GR
GS
0 0.447 0.741 RC
2 LJ
2 LW
N
150 403 M
155 398 L
S
GR
GS
0 0.447 0.741 RC
2 LJ
2 LW
N
150 398 M
155 403 L
S
GR
GS
0 0.447 0.741 RC
2 LJ
2 LW
N
153 372 M
158 367 L
S
GR
GS
0 0.447 0.741 RC
2 LJ
2 LW
N
153 367 M
158 372 L
S
GR
GS
0 0.447 0.741 RC
2 LJ
2 LW
N
155 343 M
160 338 L
S
GR
GS
0 0.447 0.741 RC
2 LJ
2 LW
N
155 338 M
160 343 L
S
GR
GS
0 0.447 0.741 RC
2 LJ
2 LW
N
158 316 M
163 311 L
S
GR
GS
0 0.447 0.741 RC
2 LJ
2 LW
N
158 311 M
163 316 L
S
GR
GS
0 0.447 0.741 RC
2 LJ
2 LW
N
161 291 M
166 286 L
S
GR
GS
0 0.447 0.741 RC
2 LJ
2 LW
N
161 286 M
166 291 L
S
GR
GS
0 0.447 0.741 RC
2 LJ
2 LW
N
164 267 M
169 262 L
S
GR
GS
0 0.447 0.741 RC
2 LJ
2 LW
N
164 262 M
169 267 L
S
GR
GS
0 0.447 0.741 RC
2 LJ
2 LW
N
167 246 M
172 241 L
S
GR
GS
0 0.447 0.741 RC
2 LJ
2 LW
N
167 241 M
172 246 L
S
GR
GS
0 0.447 0.741 RC
2 LJ
2 LW
N
169 227 M
174 222 L
S
GR
GS
0 0.447 0.741 RC
2 LJ
2 LW
N
169 222 M
174 227 L
S
GR
GS
0 0.447 0.741 RC
2 LJ
2 LW
N
172 209 M
177 204 L
S
GR
GS
0 0.447 0.741 RC
2 LJ
2 LW
N
172 204 M
177 209 L
S
GR
GS
0 0.447 0.741 RC
2 LJ
2 LW
N
175 194 M
180 189 L
S
GR
GS
0 0.447 0.741 RC
2 LJ
2 LW
N
175 189 M
180 194 L
S
GR
GS
0 0.447 0.741 RC
2 LJ
2 LW
N
178 180 M
183 175 L
S
GR
GS
0 0.447 0.741 RC
2 LJ
2 LW
N
178 175 M
183 180 L
S
GR
GS
0 0.447 0.741 RC
2 LJ
2 LW
N
181 169 M
186 164 L
S
GR
GS
0 0.447 0.741 RC
2 LJ
2 LW
N
181 164 M
186 169 L
S
GR
GS
0 0.447 0.741 RC
2 LJ
2 LW
N
183 159 M
188 154 L
S
GR
GS
0 0.447 0.741 RC
2 LJ
2 LW
N
183 154 M
188 159 L
S
GR
GS
0 0.447 0.741 RC
2 LJ
2 LW
N
186 152 M
191 147 L
S
GR
GS
0 0.447 0.741 RC
2 LJ
2 LW
N
186 147 M
191 152 L
S
GR
GS
0 0.447 0.741 RC
2 LJ
2 LW
N
189 146 M
194 141 L
S
GR
GS
0 0.447 0.741 RC
2 LJ
2 LW
N
189 141 M
194 146 L
S
GR
GS
0 0.447 0.741 RC
2 LJ
2 LW
N
192 142 M
197 137 L
S
GR
GS
0 0.447 0.741 RC
2 LJ
2 LW
N
192 137 M
197 142 L
S
GR
GS
0 0.447 0.741 RC
2 LJ
2 LW
N
195 140 M
200 135 L
S
GR
GS
0 0.447 0.741 RC
2 LJ
2 LW
N
195 135 M
200 140 L
S
GR
GS
0 0.447 0.741 RC
2 LJ
2 LW
N
197 140 M
202 135 L
S
GR
GS
0 0.447 0.741 RC
2 LJ
2 LW
N
197 135 M
202 140 L
S
GR
GS
0 0.447 0.741 RC
2 LJ
2 LW
N
200 143 M
205 138 L
S
GR
GS
0 0.447 0.741 RC
2 LJ
2 LW
N
200 138 M
205 143 L
S
GR
GS
0 0.447 0.741 RC
2 LJ
2 LW
N
203 147 M
208 142 L
S
GR
GS
0 0.447 0.741 RC
2 LJ
2 LW
N
203 142 M
208 147 L
S
GR
GS
0 0.447 0.741 RC
2 LJ
2 LW
N
206 153 M
211 148 L
S
GR
GS
0 0.447 0.741 RC
2 LJ
2 LW
N
206 148 M
211 153 L
S
GR
GS
0 0.447 0.741 RC
2 LJ
2 LW
N
209 161 M
214 156 L
S
GR
GS
0 0.447 0.741 RC
2 LJ
2 LW
N
209 156 M
214 161 L
S
GR
GS
0 0.447 0.741 RC
2 LJ
2 LW
N
211 171 M
216 166 L
S
GR
GS
0 0.447 0.741 RC
2 LJ
2 LW
N
211 166 M
216 171 L
S
GR
GS
0 0.447 0.741 RC
2 LJ
2 LW
N
214 183 M
219 178 L
S
GR
GS
0 0.447 0.741 RC
2 LJ
2 LW
N
214 178 M
219 183 L
S
GR
GS
0 0.447 0.741 RC
2 LJ
2 LW
N
217 197 M
222 192 L
S
GR
GS
0 0.447 0.741 RC
2 LJ
2 LW
N
217 192 M
222 197 L
S
GR
GS
0 0.447 0.741 RC
2 LJ
2 LW
N
220 212 M
225 207 L
S
GR
GS
0 0.447 0.741 RC
2 LJ
2 LW
N
220 207 M
225 212 L
S
GR
GS
0 0.447 0.741 RC
2 LJ
2 LW
N
223 230 M
228 225 L
S
GR
GS
0 0.447 0.741 RC
2 LJ
2 LW
N
223 225 M
228 230 L
S
GR
GS
0 0.447 0.741 RC
2 LJ
2 LW
N
226 250 M
231 245 L
S
GR
GS
0 0.447 0.741 RC
2 LJ
2 LW
N
226 245 M
231 250 L
S
GR
GS
0 0.447 0.741 RC
2 LJ
2 LW
N
228 272 M
233 267 L
S
GR
GS
0 0.447 0.741 RC
2 LJ
2 LW
N
228 267 M
233 272 L
S
GR
GS
0 0.447 0.741 RC
2 LJ
2 LW
N
231 295 M
236 290 L
S
GR
GS
0 0.447 0.741 RC
2 LJ
2 LW
N
231 290 M
236 295 L
S
GR
GS
0 0.447 0.741 RC
2 LJ
2 LW
N
234 321 M
239 316 L
S
GR
GS
0 0.447 0.741 RC
2 LJ
2 LW
N
234 316 M
239 321 L
S
GR
GS
0 0.447 0.741 RC
2 LJ
2 LW
N
237 348 M
242 343 L
S
GR
GS
0 0.447 0.741 RC
2 LJ
2 LW
N
237 343 M
242 348 L
S
GR
GS
0 0.447 0.741 RC
2 LJ
2 LW
N
240 378 M
245 373 L
S
GR
GS
0 0.447 0.741 RC
2 LJ
2 LW
N
240 373 M
245 378 L
S
GR
GS
0 0.447 0.741 RC
2 LJ
2 LW
N
242 409 M
247 404 L
S
GR
GS
0 0.447 0.741 RC
2 LJ
2 LW
N
242 404 M
247 409 L
S
GR
GS
0 0.447 0.741 RC
2 LJ
2 LW
N
245 443 M
250 438 L
S
GR
GS
0 0.447 0.741 RC
2 LJ
2 LW
N
245 438 M
250 443 L
S
GR
GS
0 0.447 0.741 RC
2 LJ
2 LW
N
248 478 M
253 473 L
S
GR
GS
0 0.447 0.741 RC
2 LJ
2 LW
N
248 473 M
253 478 L
S
GR
GS
0 0.447 0.741 RC
2 LJ
2 LW
N
251 516 M
256 511 L
S
GR
GS
0 0.447 0.741 RC
2 LJ
2 LW
N
251 511 M
256 516 L
S
GR
GS
0 0.447 0.741 RC
2 LJ
2 LW
N
253 547 M
258 542 L
S
GR
GS
0 0.447 0.741 RC
2 LJ
2 LW
N
253 542 M
258 547 L
S
GR
GS
0 0.447 0.741 RC
2 LJ
2 LW
N
253 547 M
258 542 L
S
GR
GS
0 0.447 0.741 RC
2 LJ
2 LW
N
253 542 M
258 547 L
S
GR
GS
0 0.447 0.741 RC
2 LJ
2 LW
N
253 547 M
258 542 L
S
GR
GS
0 0.447 0.741 RC
2 LJ
2 LW
N
253 542 M
258 547 L
S
GR
GS
0 0.447 0.741 RC
2 LJ
2 LW
N
254 541 M
259 536 L
S
GR
GS
0 0.447 0.741 RC
2 LJ
2 LW
N
254 536 M
259 541 L
S
GR
GS
0 0.447 0.741 RC
2 LJ
2 LW
N
256 506 M
261 501 L
S
GR
GS
0 0.447 0.741 RC
2 LJ
2 LW
N
256 501 M
261 506 L
S
GR
GS
0 0.447 0.741 RC
2 LJ
2 LW
N
259 474 M
264 469 L
S
GR
GS
0 0.447 0.741 RC
2 LJ
2 LW
N
259 469 M
264 474 L
S
GR
GS
0 0.447 0.741 RC
2 LJ
2 LW
N
262 443 M
267 438 L
S
GR
GS
0 0.447 0.741 RC
2 LJ
2 LW
N
262 438 M
267 443 L
S
GR
GS
0 0.447 0.741 RC
2 LJ
2 LW
N
265 414 M
270 409 L
S
GR
GS
0 0.447 0.741 RC
2 LJ
2 LW
N
265 409 M
270 414 L
S
GR
GS
0 0.447 0.741 RC
2 LJ
2 LW
N
268 388 M
273 383 L
S
GR
GS
0 0.447 0.741 RC
2 LJ
2 LW
N
268 383 M
273 388 L
S
GR
GS
0 0.447 0.741 RC
2 LJ
2 LW
N
270 363 M
275 358 L
S
GR
GS
0 0.447 0.741 RC
2 LJ
2 LW
N
270 358 M
275 363 L
S
GR
GS
0 0.447 0.741 RC
2 LJ
2 LW
N
273 340 M
278 335 L
S
GR
GS
0 0.447 0.741 RC
2 LJ
2 LW
N
273 335 M
278 340 L
S
GR
GS
0 0.447 0.741 RC
2 LJ
2 LW
N
276 319 M
281 314 L
S
GR
GS
0 0.447 0.741 RC
2 LJ
2 LW
N
276 314 M
281 319 L
S
GR
GS
0 0.447 0.741 RC
2 LJ
2 LW
N
279 300 M
284 295 L
S
GR
GS
0 0.447 0.741 RC
2 LJ
2 LW
N
279 295 M
284 300 L
S
GR
GS
0 0.447 0.741 RC
2 LJ
2 LW
N
282 283 M
287 278 L
S
GR
GS
0 0.447 0.741 RC
2 LJ
2 LW
N
282 278 M
287 283 L
S
GR
GS
0 0.447 0.741 RC
2 LJ
2 LW
N
284 268 M
289 263 L
S
GR
GS
0 0.447 0.741 RC
2 LJ
2 LW
N
284 263 M
289 268 L
S
GR
GS
0 0.447 0.741 RC
2 LJ
2 LW
N
287 255 M
292 250 L
S
GR
GS
0 0.447 0.741 RC
2 LJ
2 LW
N
287 250 M
292 255 L
S
GR
GS
0 0.447 0.741 RC
2 LJ
2 LW
N
290 244 M
295 239 L
S
GR
GS
0 0.447 0.741 RC
2 LJ
2 LW
N
290 239 M
295 244 L
S
GR
GS
0 0.447 0.741 RC
2 LJ
2 LW
N
293 235 M
298 230 L
S
GR
GS
0 0.447 0.741 RC
2 LJ
2 LW
N
293 230 M
298 235 L
S
GR
GS
0 0.447 0.741 RC
2 LJ
2 LW
N
296 227 M
301 222 L
S
GR
GS
0 0.447 0.741 RC
2 LJ
2 LW
N
296 222 M
301 227 L
S
GR
GS
0 0.447 0.741 RC
2 LJ
2 LW
N
298 222 M
303 217 L
S
GR
GS
0 0.447 0.741 RC
2 LJ
2 LW
N
298 217 M
303 222 L
S
GR
GS
0 0.447 0.741 RC
2 LJ
2 LW
N
301 219 M
306 214 L
S
GR
GS
0 0.447 0.741 RC
2 LJ
2 LW
N
301 214 M
306 219 L
S
GR
GS
0 0.447 0.741 RC
2 LJ
2 LW
N
304 218 M
309 213 L
S
GR
GS
0 0.447 0.741 RC
2 LJ
2 LW
N
304 213 M
309 218 L
S
GR
GS
0 0.447 0.741 RC
2 LJ
2 LW
N
307 218 M
312 213 L
S
GR
GS
0 0.447 0.741 RC
2 LJ
2 LW
N
307 213 M
312 218 L
S
GR
GS
0 0.447 0.741 RC
2 LJ
2 LW
N
310 221 M
315 216 L
S
GR
GS
0 0.447 0.741 RC
2 LJ
2 LW
N
310 216 M
315 221 L
S
GR
GS
0 0.447 0.741 RC
2 LJ
2 LW
N
313 225 M
318 220 L
S
GR
GS
0 0.447 0.741 RC
2 LJ
2 LW
N
313 220 M
318 225 L
S
GR
GS
0 0.447 0.741 RC
2 LJ
2 LW
N
315 232 M
320 227 L
S
GR
GS
0 0.447 0.741 RC
2 LJ
2 LW
N
315 227 M
320 232 L
S
GR
GS
0 0.447 0.741 RC
2 LJ
2 LW
N
318 240 M
323 235 L
S
GR
GS
0 0.447 0.741 RC
2 LJ
2 LW
N
318 235 M
323 240 L
S
GR
GS
0 0.447 0.741 RC
2 LJ
2 LW
N
321 251 M
326 246 L
S
GR
GS
0 0.447 0.741 RC
2 LJ
2 LW
N
321 246 M
326 251 L
S
GR
GS
0 0.447 0.741 RC
2 LJ
2 LW
N
324 263 M
329 258 L
S
GR
GS
0 0.447 0.741 RC
2 LJ
2 LW
N
324 258 M
329 263 L
S
GR
GS
0 0.447 0.741 RC
2 LJ
2 LW
N
327 277 M
332 272 L
S
GR
GS
0 0.447 0.741 RC
2 LJ
2 LW
N
327 272 M
332 277 L
S
GR
GS
0 0.447 0.741 RC
2 LJ
2 LW
N
329 294 M
334 289 L
S
GR
GS
0 0.447 0.741 RC
2 LJ
2 LW
N
329 289 M
334 294 L
S
GR
GS
0 0.447 0.741 RC
2 LJ
2 LW
N
332 312 M
337 307 L
S
GR
GS
0 0.447 0.741 RC
2 LJ
2 LW
N
332 307 M
337 312 L
S
GR
GS
0 0.447 0.741 RC
2 LJ
2 LW
N
335 332 M
340 327 L
S
GR
GS
0 0.447 0.741 RC
2 LJ
2 LW
N
335 327 M
340 332 L
S
GR
GS
0 0.447 0.741 RC
2 LJ
2 LW
N
338 354 M
343 349 L
S
GR
GS
0 0.447 0.741 RC
2 LJ
2 LW
N
338 349 M
343 354 L
S
GR
GS
0 0.447 0.741 RC
2 LJ
2 LW
N
341 378 M
346 373 L
S
GR
GS
0 0.447 0.741 RC
2 LJ
2 LW
N
341 373 M
346 378 L
S
GR
GS
0 0.447 0.741 RC
2 LJ
2 LW
N
343 404 M
348 399 L
S
GR
GS
0 0.447 0.741 RC
2 LJ
2 LW
N
343 399 M
348 404 L
S
GR
GS
0 0.447 0.741 RC
2 LJ
2 LW
N
346 432 M
351 427 L
S
GR
GS
0 0.447 0.741 RC
2 LJ
2 LW
N
346 427 M
351 432 L
S
GR
GS
0 0.447 0.741 RC
2 LJ
2 LW
N
349 462 M
354 457 L
S
GR
GS
0 0.447 0.741 RC
2 LJ
2 LW
N
349 457 M
354 462 L
S
GR
GS
0 0.447 0.741 RC
2 LJ
2 LW
N
352 494 M
357 489 L
S
GR
GS
0 0.447 0.741 RC
2 LJ
2 LW
N
352 489 M
357 494 L
S
GR
GS
0 0.447 0.741 RC
2 LJ
2 LW
N
355 528 M
360 523 L
S
GR
GS
0 0.447 0.741 RC
2 LJ
2 LW
N
355 523 M
360 528 L
S
GR
GS
0 0.447 0.741 RC
2 LJ
2 LW
N
356 547 M
361 542 L
S
GR
GS
0 0.447 0.741 RC
2 LJ
2 LW
N
356 542 M
361 547 L
S
GR
GS
0 0.447 0.741 RC
2 LJ
2 LW
N
356 547 M
361 542 L
S
GR
GS
0 0.447 0.741 RC
2 LJ
2 LW
N
356 542 M
361 547 L
S
GR
GS
0 0.447 0.741 RC
2 LJ
2 LW
N
356 547 M
361 542 L
S
GR
GS
0 0.447 0.741 RC
2 LJ
2 LW
N
356 542 M
361 547 L
S
GR
GS
0 0.447 0.741 RC
2 LJ
2 LW
N
357 533 M
362 528 L
S
GR
GS
0 0.447 0.741 RC
2 LJ
2 LW
N
357 528 M
362 533 L
S
GR
GS
0 0.447 0.741 RC
2 LJ
2 LW
N
360 503 M
365 498 L
S
GR
GS
0 0.447 0.741 RC
2 LJ
2 LW
N
360 498 M
365 503 L
S
GR
GS
0 0.447 0.741 RC
2 LJ
2 LW
N
363 474 M
368 469 L
S
GR
GS
0 0.447 0.741 RC
2 LJ
2 LW
N
363 469 M
368 474 L
S
GR
GS
0 0.447 0.741 RC
2 LJ
2 LW
N
366 448 M
371 443 L
S
GR
GS
0 0.447 0.741 RC
2 LJ
2 LW
N
366 443 M
371 448 L
S
GR
GS
0 0.447 0.741 RC
2 LJ
2 LW
N
369 423 M
374 418 L
S
GR
GS
0 0.447 0.741 RC
2 LJ
2 LW
N
369 418 M
374 423 L
S
GR
GS
0 0.447 0.741 RC
2 LJ
2 LW
N
371 400 M
376 395 L
S
GR
GS
0 0.447 0.741 RC
2 LJ
2 LW
N
371 395 M
376 400 L
S
GR
GS
0 0.447 0.741 RC
2 LJ
2 LW
N
374 380 M
379 375 L
S
GR
GS
0 0.447 0.741 RC
2 LJ
2 LW
N
374 375 M
379 380 L
S
GR
GS
0 0.447 0.741 RC
2 LJ
2 LW
N
377 361 M
382 356 L
S
GR
GS
0 0.447 0.741 RC
2 LJ
2 LW
N
377 356 M
382 361 L
S
GR
GS
0 0.447 0.741 RC
2 LJ
2 LW
N
380 344 M
385 339 L
S
GR
GS
0 0.447 0.741 RC
2 LJ
2 LW
N
380 339 M
385 344 L
S
GR
GS
0 0.447 0.741 RC
2 LJ
2 LW
N
383 329 M
388 324 L
S
GR
GS
0 0.447 0.741 RC
2 LJ
2 LW
N
383 324 M
388 329 L
S
GR
GS
0 0.447 0.741 RC
2 LJ
2 LW
N
385 316 M
390 311 L
S
GR
GS
0 0.447 0.741 RC
2 LJ
2 LW
N
385 311 M
390 316 L
S
GR
GS
0 0.447 0.741 RC
2 LJ
2 LW
N
388 305 M
393 300 L
S
GR
GS
0 0.447 0.741 RC
2 LJ
2 LW
N
388 300 M
393 305 L
S
GR
GS
0 0.447 0.741 RC
2 LJ
2 LW
N
391 297 M
396 292 L
S
GR
GS
0 0.447 0.741 RC
2 LJ
2 LW
N
391 292 M
396 297 L
S
GR
GS
0 0.447 0.741 RC
2 LJ
2 LW
N
394 290 M
399 285 L
S
GR
GS
0 0.447 0.741 RC
2 LJ
2 LW
N
394 285 M
399 290 L
S
GR
GS
0 0.447 0.741 RC
2 LJ
2 LW
N
397 284 M
402 279 L
S
GR
GS
0 0.447 0.741 RC
2 LJ
2 LW
N
397 279 M
402 284 L
S
GR
GS
0 0.447 0.741 RC
2 LJ
2 LW
N
400 281 M
405 276 L
S
GR
GS
0 0.447 0.741 RC
2 LJ
2 LW
N
400 276 M
405 281 L
S
GR
GS
0 0.447 0.741 RC
2 LJ
2 LW
N
402 280 M
407 275 L
S
GR
GS
0 0.447 0.741 RC
2 LJ
2 LW
N
402 275 M
407 280 L
S
GR
GS
0 0.447 0.741 RC
2 LJ
2 LW
N
405 281 M
410 276 L
S
GR
GS
0 0.447 0.741 RC
2 LJ
2 LW
N
405 276 M
410 281 L
S
GR
GS
0 0.447 0.741 RC
2 LJ
2 LW
N
408 284 M
413 279 L
S
GR
GS
0 0.447 0.741 RC
2 LJ
2 LW
N
408 279 M
413 284 L
S
GR
GS
0 0.447 0.741 RC
2 LJ
2 LW
N
411 289 M
416 284 L
S
GR
GS
0 0.447 0.741 RC
2 LJ
2 LW
N
411 284 M
416 289 L
S
GR
GS
0 0.447 0.741 RC
2 LJ
2 LW
N
414 295 M
419 290 L
S
GR
GS
0 0.447 0.741 RC
2 LJ
2 LW
N
414 290 M
419 295 L
S
GR
GS
0 0.447 0.741 RC
2 LJ
2 LW
N
416 304 M
421 299 L
S
GR
GS
0 0.447 0.741 RC
2 LJ
2 LW
N
416 299 M
421 304 L
S
GR
GS
0 0.447 0.741 RC
2 LJ
2 LW
N
419 314 M
424 309 L
S
GR
GS
0 0.447 0.741 RC
2 LJ
2 LW
N
419 309 M
424 314 L
S
GR
GS
0 0.447 0.741 RC
2 LJ
2 LW
N
422 327 M
427 322 L
S
GR
GS
0 0.447 0.741 RC
2 LJ
2 LW
N
422 322 M
427 327 L
S
GR
GS
0 0.447 0.741 RC
2 LJ
2 LW
N
425 342 M
430 337 L
S
GR
GS
0 0.447 0.741 RC
2 LJ
2 LW
N
425 337 M
430 342 L
S
GR
GS
0 0.447 0.741 RC
2 LJ
2 LW
N
428 358 M
433 353 L
S
GR
GS
0 0.447 0.741 RC
2 LJ
2 LW
N
428 353 M
433 358 L
S
GR
GS
0 0.447 0.741 RC
2 LJ
2 LW
N
430 376 M
435 371 L
S
GR
GS
0 0.447 0.741 RC
2 LJ
2 LW
N
430 371 M
435 376 L
S
GR
GS
0 0.447 0.741 RC
2 LJ
2 LW
N
433 397 M
438 392 L
S
GR
GS
0 0.447 0.741 RC
2 LJ
2 LW
N
433 392 M
438 397 L
S
GR
GS
0 0.447 0.741 RC
2 LJ
2 LW
N
436 419 M
441 414 L
S
GR
GS
0 0.447 0.741 RC
2 LJ
2 LW
N
436 414 M
441 419 L
S
GR
GS
0 0.447 0.741 RC
2 LJ
2 LW
N
439 443 M
444 438 L
S
GR
GS
0 0.447 0.741 RC
2 LJ
2 LW
N
439 438 M
444 443 L
S
GR
GS
0 0.447 0.741 RC
2 LJ
2 LW
N
442 470 M
447 465 L
S
GR
GS
0 0.447 0.741 RC
2 LJ
2 LW
N
442 465 M
447 470 L
S
GR
GS
0 0.447 0.741 RC
2 LJ
2 LW
N
444 498 M
449 493 L
S
GR
GS
0 0.447 0.741 RC
2 LJ
2 LW
N
444 493 M
449 498 L
S
GR
GS
0 0.447 0.741 RC
2 LJ
2 LW
N
447 528 M
452 523 L
S
GR
GS
0 0.447 0.741 RC
2 LJ
2 LW
N
447 523 M
452 528 L
S
GR
GS
0 0.447 0.741 RC
2 LJ
2 LW
N
449 547 M
454 542 L
S
GR
GS
0 0.447 0.741 RC
2 LJ
2 LW
N
449 542 M
454 547 L
S
GR
GS
0 0.447 0.741 RC
2 LJ
2 LW
N
449 547 M
454 542 L
S
GR
GS
0 0.447 0.741 RC
2 LJ
2 LW
N
449 542 M
454 547 L
S
GR
GS
0 0.447 0.741 RC
2 LJ
2 LW
N
449 547 M
454 542 L
S
GR
GS
0 0.447 0.741 RC
2 LJ
2 LW
N
449 542 M
454 547 L
S
GR
GS
0 0.447 0.741 RC
2 LJ
2 LW
N
450 536 M
455 531 L
S
GR
GS
0 0.447 0.741 RC
2 LJ
2 LW
N
450 531 M
455 536 L
S
GR
GS
0 0.447 0.741 RC
2 LJ
2 LW
N
453 509 M
458 504 L
S
GR
GS
0 0.447 0.741 RC
2 LJ
2 LW
N
453 504 M
458 509 L
S
GR
GS
0 0.447 0.741 RC
2 LJ
2 LW
N
456 484 M
461 479 L
S
GR
GS
0 0.447 0.741 RC
2 LJ
2 LW
N
456 479 M
461 484 L
S
GR
GS
0 0.447 0.741 RC
2 LJ
2 LW
N
458 460 M
463 455 L
S
GR
GS
0 0.447 0.741 RC
2 LJ
2 LW
N
458 455 M
463 460 L
S
GR
GS
0 0.447 0.741 RC
2 LJ
2 LW
N
461 439 M
466 434 L
S
GR
GS
0 0.447 0.741 RC
2 LJ
2 LW
N
461 434 M
466 439 L
S
GR
GS
0 0.447 0.741 RC
2 LJ
2 LW
N
464 419 M
469 414 L
S
GR
GS
0 0.447 0.741 RC
2 LJ
2 LW
N
464 414 M
469 419 L
S
GR
GS
0 0.447 0.741 RC
2 LJ
2 LW
N
467 402 M
472 397 L
S
GR
GS
0 0.447 0.741 RC
2 LJ
2 LW
N
467 397 M
472 402 L
S
GR
GS
0 0.447 0.741 RC
2 LJ
2 LW
N
470 386 M
475 381 L
S
GR
GS
0 0.447 0.741 RC
2 LJ
2 LW
N
470 381 M
475 386 L
S
GR
GS
0 0.447 0.741 RC
2 LJ
2 LW
N
472 372 M
477 367 L
S
GR
GS
0 0.447 0.741 RC
2 LJ
2 LW
N
472 367 M
477 372 L
S
GR
GS
0 0.447 0.741 RC
2 LJ
2 LW
N
475 360 M
480 355 L
S
GR
GS
0 0.447 0.741 RC
2 LJ
2 LW
N
475 355 M
480 360 L
S
GR
GS
0 0.447 0.741 RC
2 LJ
2 LW
N
478 351 M
483 346 L
S
GR
GS
0 0.447 0.741 RC
2 LJ
2 LW
N
478 346 M
483 351 L
S
GR
GS
0 0.447 0.741 RC
2 LJ
2 LW
N
481 343 M
486 338 L
S
GR
GS
0 0.447 0.741 RC
2 LJ
2 LW
N
481 338 M
486 343 L
S
GR
GS
0 0.447 0.741 RC
2 LJ
2 LW
N
484 337 M
489 332 L
S
GR
GS
0 0.447 0.741 RC
2 LJ
2 LW
N
484 332 M
489 337 L
S
GR
GS
0 0.447 0.741 RC
2 LJ
2 LW
N
487 333 M
492 328 L
S
GR
GS
0 0.447 0.741 RC
2 LJ
2 LW
N
487 328 M
492 333 L
S
GR
GS
0 0.447 0.741 RC
2 LJ
2 LW
N
489 331 M
494 326 L
S
GR
GS
0 0.447 0.741 RC
2 LJ
2 LW
N
489 326 M
494 331 L
S
GR
GS
0 0.447 0.741 RC
2 LJ
2 LW
N
492 331 M
497 326 L
S
GR
GS
0 0.447 0.741 RC
2 LJ
2 LW
N
492 326 M
497 331 L
S
GR
GS
0 0.447 0.741 RC
2 LJ
2 LW
N
495 333 M
500 328 L
S
GR
GS
0 0.447 0.741 RC
2 LJ
2 LW
N
495 328 M
500 333 L
S
GR
GS
0 0.447 0.741 RC
2 LJ
2 LW
N
498 337 M
503 332 L
S
GR
GS
0 0.447 0.741 RC
2 LJ
2 LW
N
498 332 M
503 337 L
S
GR
GS
0 0.447 0.741 RC
2 LJ
2 LW
N
501 343 M
506 338 L
S
GR
GS
0 0.447 0.741 RC
2 LJ
2 LW
N
501 338 M
506 343 L
S
GR
GS
0 0.447 0.741 RC
2 LJ
2 LW
N
503 351 M
508 346 L
S
GR
GS
0 0.447 0.741 RC
2 LJ
2 LW
N
503 346 M
508 351 L
S
GR
GS
0 0.447 0.741 RC
2 LJ
2 LW
N
506 361 M
511 356 L
S
GR
GS
0 0.447 0.741 RC
2 LJ
2 LW
N
506 356 M
511 361 L
S
GR
GS
0 0.447 0.741 RC
2 LJ
2 LW
N
509 372 M
514 367 L
S
GR
GS
0 0.447 0.741 RC
2 LJ
2 LW
N
509 367 M
514 372 L
S
GR
GS
0 0.447 0.741 RC
2 LJ
2 LW
N
512 386 M
517 381 L
S
GR
GS
0 0.447 0.741 RC
2 LJ
2 LW
N
512 381 M
517 386 L
S
GR
GS
0 0.447 0.741 RC
2 LJ
2 LW
N
515 402 M
520 397 L
S
GR
GS
0 0.447 0.741 RC
2 LJ
2 LW
N
515 397 M
520 402 L
S
GR
GS
0 0.447 0.741 RC
2 LJ
2 LW
N
517 419 M
522 414 L
S
GR
GS
0 0.447 0.741 RC
2 LJ
2 LW
N
517 414 M
522 419 L
S
GR
GS
0 0.447 0.741 RC
2 LJ
2 LW
N
520 439 M
525 434 L
S
GR
GS
0 0.447 0.741 RC
2 LJ
2 LW
N
520 434 M
525 439 L
S
GR
GS
0 0.447 0.741 RC
2 LJ
2 LW
N
523 461 M
528 456 L
S
GR
GS
0 0.447 0.741 RC
2 LJ
2 LW
N
523 456 M
528 461 L
S
GR
GS
0 0.447 0.741 RC
2 LJ
2 LW
N
526 484 M
531 479 L
S
GR
GS
0 0.447 0.741 RC
2 LJ
2 LW
N
526 479 M
531 484 L
S
GR
GS
0 0.447 0.741 RC
2 LJ
2 LW
N
529 510 M
534 505 L
S
GR
GS
0 0.447 0.741 RC
2 LJ
2 LW
N
529 505 M
534 510 L
S
GR
GS
0 0.447 0.741 RC
2 LJ
2 LW
N
531 537 M
536 532 L
S
GR
GS
0 0.447 0.741 RC
2 LJ
2 LW
N
531 532 M
536 537 L
S
GR
GS
0 0.447 0.741 RC
2 LJ
2 LW
N
532 547 M
537 542 L
S
GR
GS
0 0.447 0.741 RC
2 LJ
2 LW
N
532 542 M
537 547 L
S
GR
GS
0 0.447 0.741 RC
2 LJ
2 LW
N
532 547 M
537 542 L
S
GR
GS
0 0.447 0.741 RC
2 LJ
2 LW
N
532 542 M
537 547 L
S
GR
GS
0 0.447 0.741 RC
2 LJ
2 LW
N
532 547 M
537 542 L
S
GR
GS
0 0.447 0.741 RC
2 LJ
2 LW
N
532 542 M
537 547 L
S
GR
GS
0 0.447 0.741 RC
2 LJ
2 LW
N
534 531 M
539 526 L
S
GR
GS
0 0.447 0.741 RC
2 LJ
2 LW
N
534 526 M
539 531 L
S
GR
GS
0 0.447 0.741 RC
2 LJ
2 LW
N
537 507 M
542 502 L
S
GR
GS
0 0.447 0.741 RC
2 LJ
2 LW
N
537 502 M
542 507 L
S
GR
GS
0 0.447 0.741 RC
2 LJ
2 LW
N
540 485 M
545 480 L
S
GR
GS
0 0.447 0.741 RC
2 LJ
2 LW
N
540 480 M
545 485 L
S
GR
GS
0 0.447 0.741 RC
2 LJ
2 LW
N
543 465 M
548 460 L
S
GR
GS
0 0.447 0.741 RC
2 LJ
2 LW
N
543 460 M
548 465 L
S
GR
GS
0 0.447 0.741 RC
2 LJ
2 LW
N
545 447 M
550 442 L
S
GR
GS
0 0.447 0.741 RC
2 LJ
2 LW
N
545 442 M
550 447 L
S
GR
GS
0 0.447 0.741 RC
2 LJ
2 LW
N
548 431 M
553 426 L
S
GR
GS
0 0.447 0.741 RC
2 LJ
2 LW
N
548 426 M
553 431 L
S
GR
GS
0 0.447 0.741 RC
2 LJ
2 LW
N
551 417 M
556 412 L
S
GR
GS
0 0.447 0.741 RC
2 LJ
2 LW
N
551 412 M
556 417 L
S
GR
GS
0 0.447 0.741 RC
2 LJ
2 LW
N
554 405 M
559 400 L
S
GR
GS
0 0.447 0.741 RC
2 LJ
2 LW
N
554 400 M
559 405 L
S
GR
GS
0 0.447 0.741 RC
2 LJ
2 LW
N
557 394 M
562 389 L
S
GR
GS
0 0.447 0.741 RC
2 LJ
2 LW
N
557 389 M
562 394 L
S
GR
GS
0 0.447 0.741 RC
2 LJ
2 LW
N
560 386 M
565 381 L
S
GR
GS
0 0.447 0.741 RC
2 LJ
2 LW
N
560 381 M
565 386 L
S
GR
GS
0 0.447 0.741 RC
2 LJ
2 LW
N
562 380 M
567 375 L
S
GR
GS
0 0.447 0.741 RC
2 LJ
2 LW
N
562 375 M
567 380 L
S
GR
GS
0 0.447 0.741 RC
2 LJ
2 LW
N
565 375 M
570 370 L
S
GR
GS
0 0.447 0.741 RC
2 LJ
2 LW
N
565 370 M
570 375 L
S
GR
GS
0 0.447 0.741 RC
2 LJ
2 LW
N
568 373 M
573 368 L
S
GR
GS
0 0.447 0.741 RC
2 LJ
2 LW
N
568 368 M
573 373 L
S
GR
GS
0 0.447 0.741 RC
2 LJ
2 LW
N
571 372 M
576 367 L
S
GR
GS
0 0.447 0.741 RC
2 LJ
2 LW
N
571 367 M
576 372 L
S
GR
GS
0 0.447 0.741 RC
2 LJ
2 LW
N
574 374 M
579 369 L
S
GR
GS
0 0.447 0.741 RC
2 LJ
2 LW
N
574 369 M
579 374 L
S
GR
GS
0 0.447 0.741 RC
2 LJ
2 LW
N
576 377 M
581 372 L
S
GR
GS
0 0.447 0.741 RC
2 LJ
2 LW
N
576 372 M
581 377 L
S
GR
GS
0 0.447 0.741 RC
2 LJ
2 LW
N
579 382 M
584 377 L
S
GR
GS
0 0.447 0.741 RC
2 LJ
2 LW
N
579 377 M
584 382 L
S
GR
GS
0 0.447 0.741 RC
2 LJ
2 LW
N
582 390 M
587 385 L
S
GR
GS
0 0.447 0.741 RC
2 LJ
2 LW
N
582 385 M
587 390 L
S
GR
GS
0 0.447 0.741 RC
2 LJ
2 LW
N
585 399 M
590 394 L
S
GR
GS
0 0.447 0.741 RC
2 LJ
2 LW
N
585 394 M
590 399 L
S
GR
GS
0 0.447 0.741 RC
2 LJ
2 LW
N
588 410 M
593 405 L
S
GR
GS
0 0.447 0.741 RC
2 LJ
2 LW
N
588 405 M
593 410 L
S
GR
GS
0 0.447 0.741 RC
2 LJ
2 LW
N
590 423 M
595 418 L
S
GR
GS
0 0.447 0.741 RC
2 LJ
2 LW
N
590 418 M
595 423 L
S
GR
GS
0 0.447 0.741 RC
2 LJ
2 LW
N
593 439 M
598 434 L
S
GR
GS
0 0.447 0.741 RC
2 LJ
2 LW
N
593 434 M
598 439 L
S
GR
GS
0 0.447 0.741 RC
2 LJ
2 LW
N
596 456 M
601 451 L
S
GR
GS
0 0.447 0.741 RC
2 LJ
2 LW
N
596 451 M
601 456 L
S
GR
GS
0 0.447 0.741 RC
2 LJ
2 LW
N
599 475 M
604 470 L
S
GR
GS
0 0.447 0.741 RC
2 LJ
2 LW
N
599 470 M
604 475 L
S
GR
GS
0 0.447 0.741 RC
2 LJ
2 LW
N
602 496 M
607 491 L
S
GR
GS
0 0.447 0.741 RC
2 LJ
2 LW
N
602 491 M
607 496 L
S
GR
GS
0 0.447 0.741 RC
2 LJ
2 LW
N
604 519 M
609 514 L
S
GR
GS
0 0.447 0.741 RC
2 LJ
2 LW
N
604 514 M
609 519 L
S
GR
GS
0 0.447 0.741 RC
2 LJ
2 LW
N
607 544 M
612 539 L
S
GR
GS
0 0.447 0.741 RC
2 LJ
2 LW
N
607 539 M
612 544 L
S
GR
GS
0 0.447 0.741 RC
2 LJ
2 LW
N
608 547 M
613 542 L
S
GR
GS
0 0.447 0.741 RC
2 LJ
2 LW
N
608 542 M
613 547 L
S
GR
GS
0 0.447 0.741 RC
2 LJ
2 LW
N
608 547 M
613 542 L
S
GR
GS
0 0.447 0.741 RC
2 LJ
2 LW
N
608 542 M
613 547 L
S
GR
GS
0 0.447 0.741 RC
2 LJ
2 LW
N
608 547 M
613 542 L
S
GR
GS
0 0.447 0.741 RC
2 LJ
2 LW
N
608 542 M
613 547 L
S
GR
GS
0 0.447 0.741 RC
2 LJ
2 LW
N
610 528 M
615 523 L
S
GR
GS
0 0.447 0.741 RC
2 LJ
2 LW
N
610 523 M
615 528 L
S
GR
GS
0 0.447 0.741 RC
2 LJ
2 LW
N
613 507 M
618 502 L
S
GR
GS
0 0.447 0.741 RC
2 LJ
2 LW
N
613 502 M
618 507 L
S
GR
GS
0 0.447 0.741 RC
2 LJ
2 LW
N
616 488 M
621 483 L
S
GR
GS
0 0.447 0.741 RC
2 LJ
2 LW
N
616 483 M
621 488 L
S
GR
GS
0 0.447 0.741 RC
2 LJ
2 LW
N
618 471 M
623 466 L
S
GR
GS
0 0.447 0.741 RC
2 LJ
2 LW
N
618 466 M
623 471 L
S
GR
GS
0 0.447 0.741 RC
2 LJ
2 LW
N
621 456 M
626 451 L
S
GR
GS
0 0.447 0.741 RC
2 LJ
2 LW
N
621 451 M
626 456 L
S
GR
GS
0 0.447 0.741 RC
2 LJ
2 LW
N
624 443 M
629 438 L
S
GR
GS
0 0.447 0.741 RC
2 LJ
2 LW
N
624 438 M
629 443 L
S
GR
GS
0 0.447 0.741 RC
2 LJ
2 LW
N
627 432 M
632 427 L
S
GR
GS
0 0.447 0.741 RC
2 LJ
2 LW
N
627 427 M
632 432 L
S
GR
GS
0 0.447 0.741 RC
2 LJ
2 LW
N
630 423 M
635 418 L
S
GR
GS
0 0.447 0.741 RC
2 LJ
2 LW
N
630 418 M
635 423 L
S
GR
GS
0 0.447 0.741 RC
2 LJ
2 LW
N
632 415 M
637 410 L
S
GR
GS
0 0.447 0.741 RC
2 LJ
2 LW
N
632 410 M
637 415 L
S
GR
GS
0 0.447 0.741 RC
2 LJ
2 LW
N
635 410 M
640 405 L
S
GR
GS
0 0.447 0.741 RC
2 LJ
2 LW
N
635 405 M
640 410 L
S
GR
GS
0 0.447 0.741 RC
2 LJ
2 LW
N
638 407 M
643 402 L
S
GR
GS
0 0.447 0.741 RC
2 LJ
2 LW
N
638 402 M
643 407 L
S
GR
GS
0 0.447 0.741 RC
2 LJ
2 LW
N
641 406 M
646 401 L
S
GR
GS
0 0.447 0.741 RC
2 LJ
2 LW
N
641 401 M
646 406 L
S
GR
GS
0 0.447 0.741 RC
2 LJ
2 LW
N
644 406 M
649 401 L
S
GR
GS
0 0.447 0.741 RC
2 LJ
2 LW
N
644 401 M
649 406 L
S
GR
GS
0 0.447 0.741 RC
2 LJ
2 LW
N
647 409 M
652 404 L
S
GR
GS
0 0.447 0.741 RC
2 LJ
2 LW
N
647 404 M
652 409 L
S
GR
GS
0 0.447 0.741 RC
2 LJ
2 LW
N
649 413 M
654 408 L
S
GR
GS
0 0.447 0.741 RC
2 LJ
2 LW
N
649 408 M
654 413 L
S
GR
GS
0 0.447 0.741 RC
2 LJ
2 LW
N
652 420 M
657 415 L
S
GR
GS
0 0.447 0.741 RC
2 LJ
2 LW
N
652 415 M
657 420 L
S
GR
GS
0 0.447 0.741 RC
2 LJ
2 LW
N
655 428 M
660 423 L
S
GR
GS
0 0.447 0.741 RC
2 LJ
2 LW
N
655 423 M
660 428 L
S
GR
GS
0 0.447 0.741 RC
2 LJ
2 LW
N
658 438 M
663 433 L
S
GR
GS
0 0.447 0.741 RC
2 LJ
2 LW
N
658 433 M
663 438 L
S
GR
GS
0 0.447 0.741 RC
2 LJ
2 LW
N
661 451 M
666 446 L
S
GR
GS
0 0.447 0.741 RC
2 LJ
2 LW
N
661 446 M
666 451 L
S
GR
GS
0 0.447 0.741 RC
2 LJ
2 LW
N
663 465 M
668 460 L
S
GR
GS
0 0.447 0.741 RC
2 LJ
2 LW
N
663 460 M
668 465 L
S
GR
GS
0 0.447 0.741 RC
2 LJ
2 LW
N
666 481 M
671 476 L
S
GR
GS
0 0.447 0.741 RC
2 LJ
2 LW
N
666 476 M
671 481 L
S
GR
GS
0 0.447 0.741 RC
2 LJ
2 LW
N
669 499 M
674 494 L
S
GR
GS
0 0.447 0.741 RC
2 LJ
2 LW
N
669 494 M
674 499 L
S
GR
GS
0 0.447 0.741 RC
2 LJ
2 LW
N
672 520 M
677 515 L
S
GR
GS
0 0.447 0.741 RC
2 LJ
2 LW
N
672 515 M
677 520 L
S
GR
GS
0 0.447 0.741 RC
2 LJ
2 LW
N
675 542 M
680 537 L
S
GR
GS
0 0.447 0.741 RC
2 LJ
2 LW
N
675 537 M
680 542 L
S
GR
GS
0 0.447 0.741 RC
2 LJ
2 LW
N
675 547 M
680 542 L
S
GR
GS
0 0.447 0.741 RC
2 LJ
2 LW
N
675 542 M
680 547 L
S
GR
GS
0 0.447 0.741 RC
2 LJ
2 LW
N
675 547 M
680 542 L
S
GR
GS
0 0.447 0.741 RC
2 LJ
2 LW
N
675 542 M
680 547 L
S
GR
GS
0 0.447 0.741 RC
2 LJ
2 LW
N
675 547 M
680 542 L
S
GR
GS
0 0.447 0.741 RC
2 LJ
2 LW
N
675 542 M
680 547 L
S
GR
GS
0 0.447 0.741 RC
2 LJ
2 LW
N
677 532 M
682 527 L
S
GR
GS
0 0.447 0.741 RC
2 LJ
2 LW
N
677 527 M
682 532 L
S
GR
GS
0 0.447 0.741 RC
2 LJ
2 LW
N
680 513 M
685 508 L
S
GR
GS
0 0.447 0.741 RC
2 LJ
2 LW
N
680 508 M
685 513 L
S
GR
GS
0 0.447 0.741 RC
2 LJ
2 LW
N
683 497 M
688 492 L
S
GR
GS
0 0.447 0.741 RC
2 LJ
2 LW
N
683 492 M
688 497 L
S
GR
GS
0 0.447 0.741 RC
2 LJ
2 LW
N
686 482 M
691 477 L
S
GR
GS
0 0.447 0.741 RC
2 LJ
2 LW
N
686 477 M
691 482 L
S
GR
GS
0 0.447 0.741 RC
2 LJ
2 LW
N
689 469 M
694 464 L
S
GR
GS
0 0.447 0.741 RC
2 LJ
2 LW
N
689 464 M
694 469 L
S
GR
GS
0 0.447 0.741 RC
2 LJ
2 LW
N
691 458 M
696 453 L
S
GR
GS
0 0.447 0.741 RC
2 LJ
2 LW
N
691 453 M
696 458 L
S
GR
GS
0 0.447 0.741 RC
2 LJ
2 LW
N
694 449 M
699 444 L
S
GR
GS
0 0.447 0.741 RC
2 LJ
2 LW
N
694 444 M
699 449 L
S
GR
GS
0 0.447 0.741 RC
2 LJ
2 LW
N
697 442 M
702 437 L
S
GR
GS
0 0.447 0.741 RC
2 LJ
2 LW
N
697 437 M
702 442 L
S
GR
GS
0 0.447 0.741 RC
2 LJ
2 LW
N
700 437 M
705 432 L
S
GR
GS
0 0.447 0.741 RC
2 LJ
2 LW
N
700 432 M
705 437 L
S
GR
GS
0 0.447 0.741 RC
2 LJ
2 LW
N
703 434 M
708 429 L
S
GR
GS
0 0.447 0.741 RC
2 LJ
2 LW
N
703 429 M
708 434 L
S
GR
GS
0 0.447 0.741 RC
2 LJ
2 LW
N
705 432 M
710 427 L
S
GR
GS
0 0.447 0.741 RC
2 LJ
2 LW
N
705 427 M
710 432 L
S
GR
GS
0 0.447 0.741 RC
2 LJ
2 LW
N
708 433 M
713 428 L
S
GR
GS
0 0.447 0.741 RC
2 LJ
2 LW
N
708 428 M
713 433 L
S
GR
GS
0 0.447 0.741 RC
2 LJ
2 LW
N
711 436 M
716 431 L
S
GR
GS
0 0.447 0.741 RC
2 LJ
2 LW
N
711 431 M
716 436 L
S
GR
GS
0 0.447 0.741 RC
2 LJ
2 LW
N
714 441 M
719 436 L
S
GR
GS
0 0.447 0.741 RC
2 LJ
2 LW
N
714 436 M
719 441 L
S
GR
GS
0 0.447 0.741 RC
2 LJ
2 LW
N
717 447 M
722 442 L
S
GR
GS
0 0.447 0.741 RC
2 LJ
2 LW
N
717 442 M
722 447 L
S
GR
GS
0 0.447 0.741 RC
2 LJ
2 LW
N
719 456 M
724 451 L
S
GR
GS
0 0.447 0.741 RC
2 LJ
2 LW
N
719 451 M
724 456 L
S
GR
GS
0 0.447 0.741 RC
2 LJ
2 LW
N
722 467 M
727 462 L
S
GR
GS
0 0.447 0.741 RC
2 LJ
2 LW
N
722 462 M
727 467 L
S
GR
GS
0 0.447 0.741 RC
2 LJ
2 LW
N
725 479 M
730 474 L
S
GR
GS
0 0.447 0.741 RC
2 LJ
2 LW
N
725 474 M
730 479 L
S
GR
GS
0 0.447 0.741 RC
2 LJ
2 LW
N
728 494 M
733 489 L
S
GR
GS
0 0.447 0.741 RC
2 LJ
2 LW
N
728 489 M
733 494 L
S
GR
GS
0 0.447 0.741 RC
2 LJ
2 LW
N
731 510 M
736 505 L
S
GR
GS
0 0.447 0.741 RC
2 LJ
2 LW
N
731 505 M
736 510 L
S
GR
GS
0 0.447 0.741 RC
2 LJ
2 LW
N
734 528 M
739 523 L
S
GR
GS
0 0.447 0.741 RC
2 LJ
2 LW
N
734 523 M
739 528 L
S
GR
GS
0 0.447 0.741 RC
2 LJ
2 LW
N
736 547 M
741 542 L
S
GR
GS
0 0.447 0.741 RC
2 LJ
2 LW
N
736 542 M
741 547 L
S
GR
GS
0 0.447 0.741 RC
2 LJ
2 LW
N
736 547 M
741 542 L
S
GR
GS
0 0.447 0.741 RC
2 LJ
2 LW
N
736 542 M
741 547 L
S
GR
GS
0 0.447 0.741 RC
2 LJ
2 LW
N
736 547 M
741 542 L
S
GR
GS
0 0.447 0.741 RC
2 LJ
2 LW
N
736 542 M
741 547 L
S
GR
GS
0 0.447 0.741 RC
2 LJ
2 LW
N
736 546 M
741 541 L
S
GR
GS
0 0.447 0.741 RC
2 LJ
2 LW
N
736 541 M
741 546 L
S
GR
GS
0 0.447 0.741 RC
2 LJ
2 LW
N
739 528 M
744 523 L
S
GR
GS
0 0.447 0.741 RC
2 LJ
2 LW
N
739 523 M
744 528 L
S
GR
GS
0 0.447 0.741 RC
2 LJ
2 LW
N
742 512 M
747 507 L
S
GR
GS
0 0.447 0.741 RC
2 LJ
2 LW
N
742 507 M
747 512 L
S
GR
GS
0 0.447 0.741 RC
2 LJ
2 LW
N
745 498 M
750 493 L
S
GR
GS
0 0.447 0.741 RC
2 LJ
2 LW
N
745 493 M
750 498 L
S
GR
GS
0 0.447 0.741 RC
2 LJ
2 LW
N
748 486 M
753 481 L
S
GR
GS
0 0.447 0.741 RC
2 LJ
2 LW
N
748 481 M
753 486 L
S
GR
GS
0 0.447 0.741 RC
2 LJ
2 LW
N
750 476 M
755 471 L
S
GR
GS
0 0.447 0.741 RC
2 LJ
2 LW
N
750 471 M
755 476 L
S
GR
GS
0 0.447 0.741 RC
2 LJ
2 LW
N
753 468 M
758 463 L
S
GR
GS
0 0.447 0.741 RC
2 LJ
2 LW
N
753 463 M
758 468 L
S
GR
GS
0 0.447 0.741 RC
2 LJ
2 LW
N
756 461 M
761 456 L
S
GR
GS
0 0.447 0.741 RC
2 LJ
2 LW
N
756 456 M
761 461 L
S
GR
GS
0 0.447 0.741 RC
2 LJ
2 LW
N
759 457 M
764 452 L
S
GR
GS
0 0.447 0.741 RC
2 LJ
2 LW
N
759 452 M
764 457 L
S
GR
GS
0 0.447 0.741 RC
2 LJ
2 LW
N
762 455 M
767 450 L
S
GR
GS
0 0.447 0.741 RC
2 LJ
2 LW
N
762 450 M
767 455 L
S
GR
GS
0 0.447 0.741 RC
2 LJ
2 LW
N
764 454 M
769 449 L
S
GR
GS
0 0.447 0.741 RC
2 LJ
2 LW
N
764 449 M
769 454 L
S
GR
GS
0 0.447 0.741 RC
2 LJ
2 LW
N
767 456 M
772 451 L
S
GR
GS
0 0.447 0.741 RC
2 LJ
2 LW
N
767 451 M
772 456 L
S
GR
GS
0 0.447 0.741 RC
2 LJ
2 LW
N
770 459 M
775 454 L
S
GR
GS
0 0.447 0.741 RC
2 LJ
2 LW
N
770 454 M
775 459 L
S
GR
GS
0 0.447 0.741 RC
2 LJ
2 LW
N
773 465 M
778 460 L
S
GR
GS
0 0.447 0.741 RC
2 LJ
2 LW
N
773 460 M
778 465 L
S
GR
GS
0 0.447 0.741 RC
2 LJ
2 LW
N
776 472 M
781 467 L
S
GR
GS
0 0.447 0.741 RC
2 LJ
2 LW
N
776 467 M
781 472 L
S
GR
GS
0 0.447 0.741 RC
2 LJ
2 LW
N
778 482 M
783 477 L
S
GR
GS
0 0.447 0.741 RC
2 LJ
2 LW
N
778 477 M
783 482 L
S
GR
GS
0 0.447 0.741 RC
2 LJ
2 LW
N
781 493 M
786 488 L
S
GR
GS
0 0.447 0.741 RC
2 LJ
2 LW
N
781 488 M
786 493 L
S
GR
GS
0 0.447 0.741 RC
2 LJ
2 LW
N
784 506 M
789 501 L
S
GR
GS
0 0.447 0.741 RC
2 LJ
2 LW
N
784 501 M
789 506 L
S
GR
GS
0 0.447 0.741 RC
2 LJ
2 LW
N
787 522 M
792 517 L
S
GR
GS
0 0.447 0.741 RC
2 LJ
2 LW
N
787 517 M
792 522 L
S
GR
GS
0 0.447 0.741 RC
2 LJ
2 LW
N
790 539 M
795 534 L
S
GR
GS
0 0.447 0.741 RC
2 LJ
2 LW
N
790 534 M
795 539 L
S
GR
GS
0 0.447 0.741 RC
2 LJ
2 LW
N
791 547 M
796 542 L
S
GR
GS
0 0.447 0.741 RC
2 LJ
2 LW
N
791 542 M
796 547 L
S
GR
GS
0 0.447 0.741 RC
2 LJ
2 LW
N
791 547 M
796 542 L
S
GR
GS
0 0.447 0.741 RC
2 LJ
2 LW
N
791 542 M
796 547 L
S
GR
GS
0 0.447 0.741 RC
2 LJ
2 LW
N
791 547 M
796 542 L
S
GR
GS
0 0.447 0.741 RC
2 LJ
2 LW
N
791 542 M
796 547 L
S
GR
GS
0 0.447 0.741 RC
2 LJ
2 LW
N
792 539 M
797 534 L
S
GR
GS
0 0.447 0.741 RC
2 LJ
2 LW
N
792 534 M
797 539 L
S
GR
GS
0 0.447 0.741 RC
2 LJ
2 LW
N
795 523 M
800 518 L
S
GR
GS
0 0.447 0.741 RC
2 LJ
2 LW
N
795 518 M
800 523 L
S
GR
GS
0 0.447 0.741 RC
2 LJ
2 LW
N
798 510 M
803 505 L
S
GR
GS
0 0.447 0.741 RC
2 LJ
2 LW
N
798 505 M
803 510 L
S
GR
GS
0 0.447 0.741 RC
2 LJ
2 LW
N
801 499 M
806 494 L
S
GR
GS
0 0.447 0.741 RC
2 LJ
2 LW
N
801 494 M
806 499 L
S
GR
GS
0 0.447 0.741 RC
2 LJ
2 LW
N
804 490 M
809 485 L
S
GR
GS
0 0.447 0.741 RC
2 LJ
2 LW
N
804 485 M
809 490 L
S
GR
GS
0 0.447 0.741 RC
2 LJ
2 LW
N
806 482 M
811 477 L
S
GR
GS
0 0.447 0.741 RC
2 LJ
2 LW
N
806 477 M
811 482 L
S
GR
GS
0 0.447 0.741 RC
2 LJ
2 LW
N
809 477 M
814 472 L
S
GR
GS
0 0.447 0.741 RC
2 LJ
2 LW
N
809 472 M
814 477 L
S
GR
GS
0 0.447 0.741 RC
2 LJ
2 LW
N
812 474 M
817 469 L
S
GR
GS
0 0.447 0.741 RC
2 LJ
2 LW
N
812 469 M
817 474 L
S
GR
GS
0 0.447 0.741 RC
2 LJ
2 LW
N
815 472 M
820 467 L
S
GR
GS
0 0.447 0.741 RC
2 LJ
2 LW
N
815 467 M
820 472 L
S
GR
GS
0 0.447 0.741 RC
2 LJ
2 LW
N
818 473 M
823 468 L
S
GR
GS
0 0.447 0.741 RC
2 LJ
2 LW
N
818 468 M
823 473 L
S
GR
GS
0 0.447 0.741 RC
2 LJ
2 LW
N
821 475 M
826 470 L
S
GR
GS
0 0.447 0.741 RC
2 LJ
2 LW
N
821 470 M
826 475 L
S
GR
GS
0 0.447 0.741 RC
2 LJ
2 LW
N
823 479 M
828 474 L
S
GR
GS
0 0.447 0.741 RC
2 LJ
2 LW
N
823 474 M
828 479 L
S
GR
GS
0 0.447 0.741 RC
2 LJ
2 LW
N
826 486 M
831 481 L
S
GR
GS
0 0.447 0.741 RC
2 LJ
2 LW
N
826 481 M
831 486 L
S
GR
GS
0 0.447 0.741 RC
2 LJ
2 LW
N
829 494 M
834 489 L
S
GR
GS
0 0.447 0.741 RC
2 LJ
2 LW
N
829 489 M
834 494 L
S
GR
GS
0 0.447 0.741 RC
2 LJ
2 LW
N
832 504 M
837 499 L
S
GR
GS
0 0.447 0.741 RC
2 LJ
2 LW
N
832 499 M
837 504 L
S
GR
GS
0 0.447 0.741 RC
2 LJ
2 LW
N
835 517 M
840 512 L
S
GR
GS
0 0.447 0.741 RC
2 LJ
2 LW
N
835 512 M
840 517 L
S
GR
GS
0 0.447 0.741 RC
2 LJ
2 LW
N
837 531 M
842 526 L
S
GR
GS
0 0.447 0.741 RC
2 LJ
2 LW
N
837 526 M
842 531 L
S
GR
GS
0 0.447 0.741 RC
2 LJ
2 LW
N
840 547 M
845 542 L
S
GR
GS
0 0.447 0.741 RC
2 LJ
2 LW
N
840 542 M
845 547 L
S
GR
GS
0 0.447 0.741 RC
2 LJ
2 LW
N
840 547 M
845 542 L
S
GR
GS
0 0.447 0.741 RC
2 LJ
2 LW
N
840 542 M
845 547 L
S
GR
GS
0 0.447 0.741 RC
2 LJ
2 LW
N
840 547 M
845 542 L
S
GR
GS
0 0.447 0.741 RC
2 LJ
2 LW
N
840 542 M
845 547 L
S
GR
GS
0 0.447 0.741 RC
2 LJ
2 LW
N
840 547 M
845 542 L
S
GR
GS
0 0.447 0.741 RC
2 LJ
2 LW
N
840 542 M
845 547 L
S
GR
GS
0 0.447 0.741 RC
2 LJ
2 LW
N
843 533 M
848 528 L
S
GR
GS
0 0.447 0.741 RC
2 LJ
2 LW
N
843 528 M
848 533 L
S
GR
GS
0 0.447 0.741 RC
2 LJ
2 LW
N
846 521 M
851 516 L
S
GR
GS
0 0.447 0.741 RC
2 LJ
2 LW
N
846 516 M
851 521 L
S
GR
GS
0 0.447 0.741 RC
2 LJ
2 LW
N
849 510 M
854 505 L
S
GR
GS
0 0.447 0.741 RC
2 LJ
2 LW
N
849 505 M
854 510 L
S
GR
GS
0 0.447 0.741 RC
2 LJ
2 LW
N
851 502 M
856 497 L
S
GR
GS
0 0.447 0.741 RC
2 LJ
2 LW
N
851 497 M
856 502 L
S
GR
GS
0 0.447 0.741 RC
2 LJ
2 LW
N
854 495 M
859 490 L
S
GR
GS
0 0.447 0.741 RC
2 LJ
2 LW
N
854 490 M
859 495 L
S
GR
GS
0 0.447 0.741 RC
2 LJ
2 LW
N
857 490 M
862 485 L
S
GR
GS
0 0.447 0.741 RC
2 LJ
2 LW
N
857 485 M
862 490 L
S
GR
GS
0 0.447 0.741 RC
2 LJ
2 LW
N
860 487 M
865 482 L
S
GR
GS
0 0.447 0.741 RC
2 LJ
2 LW
N
860 482 M
865 487 L
S
GR
GS
0 0.447 0.741 RC
2 LJ
2 LW
N
863 486 M
868 481 L
S
GR
GS
0 0.447 0.741 RC
2 LJ
2 LW
N
863 481 M
868 486 L
S
GR
GS
0 0.447 0.741 RC
2 LJ
2 LW
N
865 487 M
870 482 L
S
GR
GS
0 0.447 0.741 RC
2 LJ
2 LW
N
865 482 M
870 487 L
S
GR
GS
0 0.447 0.741 RC
2 LJ
2 LW
N
868 491 M
873 486 L
S
GR
GS
0 0.447 0.741 RC
2 LJ
2 LW
N
868 486 M
873 491 L
S
GR
GS
0 0.447 0.741 RC
2 LJ
2 LW
N
871 496 M
876 491 L
S
GR
GS
0 0.447 0.741 RC
2 LJ
2 LW
N
871 491 M
876 496 L
S
GR
GS
0 0.447 0.741 RC
2 LJ
2 LW
N
874 502 M
879 497 L
S
GR
GS
0 0.447 0.741 RC
2 LJ
2 LW
N
874 497 M
879 502 L
S
GR
GS
0 0.447 0.741 RC
2 LJ
2 LW
N
877 511 M
882 506 L
S
GR
GS
0 0.447 0.741 RC
2 LJ
2 LW
N
877 506 M
882 511 L
S
GR
GS
0 0.447 0.741 RC
2 LJ
2 LW
N
879 522 M
884 517 L
S
GR
GS
0 0.447 0.741 RC
2 LJ
2 LW
N
879 517 M
884 522 L
S
GR
GS
0 0.447 0.741 RC
2 LJ
2 LW
N
882 535 M
887 530 L
S
GR
GS
0 0.447 0.741 RC
2 LJ
2 LW
N
882 530 M
887 535 L
S
GR
GS
0 0.447 0.741 RC
2 LJ
2 LW
N
885 547 M
890 542 L
S
GR
GS
0 0.447 0.741 RC
2 LJ
2 LW
N
885 542 M
890 547 L
S
GR
GS
0 0.447 0.741 RC
2 LJ
2 LW
N
885 547 M
890 542 L
S
GR
GS
0 0.447 0.741 RC
2 LJ
2 LW
N
885 542 M
890 547 L
S
GR
GS
0 0.447 0.741 RC
2 LJ
2 LW
N
885 547 M
890 542 L
S
GR
GS
0 0.447 0.741 RC
2 LJ
2 LW
N
885 542 M
890 547 L
S
GR
GS
0 0.447 0.741 RC
2 LJ
2 LW
N
885 545 M
890 540 L
S
GR
GS
0 0.447 0.741 RC
2 LJ
2 LW
N
885 540 M
890 545 L
S
GR
%%Trailer
%%Pages: 1
%%EOF
